%YAML 1.1
%TAG !u! tag:unity3d.com,2011:
--- !u!1045 &1
EditorBuildSettings:
  m_ObjectHideFlags: 0
  serializedVersion: 2
  m_Scenes:
  - enabled: 1
    path: Assets/Scenes/Others/MainMenu.unity
    guid: 481301626474cdf45ba2dcc50fcc44c9
  - enabled: 1
    path: Assets/Scenes/Levels/Level_1.unity
    guid: 2068b2fea65999b4988f0e2cc851e7a8
  m_configObjects: {}
